task3/counter.vcd
$version Generated by VerilatedVcd $end
$date Wed Oct 16 10:37:24 2024 $end
$timescale 1ps $end

 $scope module TOP $end
  $var wire  1 # clk $end
  $var wire  8 ' count [7:0] $end
  $var wire  1 % ld $end
  $var wire  1 $ rst $end
  $var wire  8 & v [7:0] $end
  $scope module counter $end
   $var wire 32 ( WIDTH [31:0] $end
   $var wire  1 # clk $end
   $var wire  8 ' count [7:0] $end
   $var wire  1 % ld $end
   $var wire  1 $ rst $end
   $var wire  8 & v [7:0] $end
  $upscope $end
 $upscope $end
$enddefinitions $end


#0
1#
1$
0%
b00100111 &
b00000000 '
b00000000000000000000000000001000 (
#1
0#
#2
1#
#3
0#
#4
1#
#5
0#
#6
1#
0$
#7
0#
#8
1#
b00000001 '
#9
0#
#10
1#
b00000010 '
#11
0#
#12
1#
b00000011 '
#13
0#
#14
1#
b00000100 '
#15
0#
#16
1#
b00000101 '
#17
0#
#18
1#
b00000110 '
#19
0#
#20
1#
b00000111 '
#21
0#
#22
1#
b00001000 '
#23
0#
#24
1#
b00001001 '
#25
0#
#26
1#
b00001010 '
#27
0#
#28
1#
b00001011 '
#29
0#
#30
1#
b00001100 '
#31
0#
#32
1#
b00001101 '
#33
0#
#34
1#
b00001110 '
#35
0#
#36
1#
b00001111 '
#37
0#
#38
1#
b00010000 '
#39
0#
#40
1#
b00010001 '
#41
0#
#42
1#
b00010010 '
#43
0#
#44
1#
b00010011 '
#45
0#
#46
1#
b00010100 '
#47
0#
#48
1#
b00010101 '
#49
0#
#50
1#
b00010110 '
#51
0#
#52
1#
b00010111 '
#53
0#
#54
1#
b00011000 '
#55
0#
#56
1#
b00011001 '
#57
0#
#58
1#
b00011010 '
#59
0#
#60
1#
b00011011 '
#61
0#
#62
1#
b00011100 '
#63
0#
#64
1#
b00011101 '
#65
0#
#66
1#
b00011110 '
#67
0#
#68
1#
b00011111 '
#69
0#
#70
1#
b00100000 '
#71
0#
#72
1#
b00100001 '
#73
0#
#74
1#
b00100010 '
#75
0#
#76
1#
b00100011 '
#77
0#
#78
1#
b00100100 '
#79
0#
#80
1#
b00100101 '
#81
0#
#82
1#
b00100110 '
#83
0#
#84
1#
b00100111 '
#85
0#
#86
1#
b00101000 '
#87
0#
#88
1#
b00101001 '
#89
0#
#90
1#
b00101010 '
#91
0#
#92
1#
b00101011 '
#93
0#
#94
1#
b00101100 '
#95
0#
#96
1#
b00101101 '
#97
0#
#98
1#
b00101110 '
#99
0#
#100
1#
b00101111 '
#101
0#
#102
1#
b00110000 '
#103
0#
#104
1#
b00110001 '
#105
0#
#106
1#
b00110010 '
#107
0#
#108
1#
b00110011 '
#109
0#
#110
1#
b00110100 '
#111
0#
#112
1#
b00110101 '
#113
0#
#114
1#
b00110110 '
#115
0#
#116
1#
b00110111 '
#117
0#
#118
1#
b00111000 '
#119
0#
#120
1#
b00111001 '
#121
0#
#122
1#
b00111010 '
#123
0#
#124
1#
b00111011 '
#125
0#
#126
1#
b00111100 '
#127
0#
#128
1#
b00111101 '
#129
0#
#130
1#
b00111110 '
#131
0#
#132
1#
b00111111 '
#133
0#
#134
1#
b01000000 '
#135
0#
#136
1#
b01000001 '
#137
0#
#138
1#
b01000010 '
#139
0#
#140
1#
b01000011 '
#141
0#
#142
1#
1%
b01000100 '
#143
0#
#144
1#
0%
b00100111 '
#145
0#
#146
1#
b00101000 '
#147
0#
#148
1#
b00101001 '
#149
0#
#150
1#
b00101010 '
#151
0#
#152
1#
b00101011 '
#153
0#
#154
1#
b00101100 '
#155
0#
#156
1#
b00101101 '
#157
0#
#158
1#
b00101110 '
#159
0#
#160
1#
b00101111 '
#161
0#
#162
1#
b00110000 '
#163
0#
#164
1#
b00110001 '
#165
0#
#166
1#
b00110010 '
#167
0#
#168
1#
b00110011 '
#169
0#
#170
1#
b00110100 '
#171
0#
#172
1#
b00110101 '
#173
0#
#174
1#
b00110110 '
#175
0#
#176
1#
b00110111 '
#177
0#
#178
1#
b00111000 '
#179
0#
#180
1#
b00111001 '
#181
0#
#182
1#
b00111010 '
#183
0#
#184
1#
b00111011 '
#185
0#
#186
1#
b00111100 '
#187
0#
#188
1#
b00111101 '
#189
0#
#190
1#
b00111110 '
#191
0#
#192
1#
b00111111 '
#193
0#
#194
1#
b01000000 '
#195
0#
#196
1#
b01000001 '
#197
0#
#198
1#
b01000010 '
#199
0#
#200
1#
b01000011 '
#201
0#
#202
1#
b01000100 '
#203
0#
#204
1#
b01000101 '
#205
0#
#206
1#
b01000110 '
#207
0#
#208
1#
b01000111 '
#209
0#
#210
1#
b01001000 '
#211
0#
#212
1#
b01001001 '
#213
0#
#214
1#
b01001010 '
#215
0#
#216
1#
b01001011 '
#217
0#
#218
1#
b01001100 '
#219
0#
#220
1#
b01001101 '
#221
0#
#222
1#
b01001110 '
#223
0#
#224
1#
b01001111 '
#225
0#
#226
1#
b01010000 '
#227
0#
#228
1#
b01010001 '
#229
0#
#230
1#
b01010010 '
#231
0#
#232
1#
b01010011 '
#233
0#
#234
1#
b01010100 '
#235
0#
#236
1#
b01010101 '
#237
0#
#238
1#
b01010110 '
#239
0#
#240
1#
b01010111 '
#241
0#
#242
1#
b01011000 '
#243
0#
#244
1#
b01011001 '
#245
0#
#246
1#
b01011010 '
#247
0#
#248
1#
b01011011 '
#249
0#
#250
1#
b01011100 '
#251
0#
#252
1#
b01011101 '
#253
0#
#254
1#
b01011110 '
#255
0#
#256
1#
b01011111 '
#257
0#
#258
1#
b01100000 '
#259
0#
#260
1#
b01100001 '
#261
0#
#262
1#
b01100010 '
#263
0#
#264
1#
b01100011 '
#265
0#
#266
1#
b01100100 '
#267
0#
#268
1#
b01100101 '
#269
0#
#270
1#
b01100110 '
#271
0#
#272
1#
b01100111 '
#273
0#
#274
1#
b01101000 '
#275
0#
#276
1#
b01101001 '
#277
0#
#278
1#
b01101010 '
#279
0#
#280
1#
b01101011 '
#281
0#
#282
1#
b01101100 '
#283
0#
#284
1#
b01101101 '
#285
0#
#286
1#
b01101110 '
#287
0#
#288
1#
1%
b01101111 '
#289
0#
#290
1#
0%
b00100111 '
#291
0#
#292
1#
b00101000 '
#293
0#
#294
1#
b00101001 '
#295
0#
#296
1#
b00101010 '
#297
0#
#298
1#
b00101011 '
#299
0#
#300
1#
b00101100 '
#301
0#
#302
1#
b00101101 '
#303
0#
#304
1#
b00101110 '
#305
0#
#306
1#
b00101111 '
#307
0#
#308
1#
b00110000 '
#309
0#
#310
1#
b00110001 '
#311
0#
#312
1#
b00110010 '
#313
0#
#314
1#
b00110011 '
#315
0#
#316
1#
b00110100 '
#317
0#
#318
1#
b00110101 '
#319
0#
#320
1#
b00110110 '
#321
0#
#322
1#
b00110111 '
#323
0#
#324
1#
b00111000 '
#325
0#
#326
1#
b00111001 '
#327
0#
#328
1#
b00111010 '
#329
0#
#330
1#
b00111011 '
#331
0#
#332
1#
b00111100 '
#333
0#
#334
1#
b00111101 '
#335
0#
#336
1#
b00111110 '
#337
0#
#338
1#
b00111111 '
#339
0#
#340
1#
b01000000 '
#341
0#
#342
1#
b01000001 '
#343
0#
#344
1#
b01000010 '
#345
0#
#346
1#
b01000011 '
#347
0#
#348
1#
b01000100 '
#349
0#
#350
1#
b01000101 '
#351
0#
#352
1#
b01000110 '
#353
0#
#354
1#
b01000111 '
#355
0#
#356
1#
b01001000 '
#357
0#
#358
1#
b01001001 '
#359
0#
#360
1#
b01001010 '
#361
0#
#362
1#
b01001011 '
#363
0#
#364
1#
b01001100 '
#365
0#
#366
1#
b01001101 '
#367
0#
#368
1#
b01001110 '
#369
0#
#370
1#
b01001111 '
#371
0#
#372
1#
b01010000 '
#373
0#
#374
1#
b01010001 '
#375
0#
#376
1#
b01010010 '
#377
0#
#378
1#
b01010011 '
#379
0#
#380
1#
b01010100 '
#381
0#
#382
1#
b01010101 '
#383
0#
#384
1#
b01010110 '
#385
0#
#386
1#
b01010111 '
#387
0#
#388
1#
b01011000 '
#389
0#
#390
1#
b01011001 '
#391
0#
#392
1#
b01011010 '
#393
0#
#394
1#
b01011011 '
#395
0#
#396
1#
b01011100 '
#397
0#
#398
1#
b01011101 '
#399
0#
#400
1#
b01011110 '
#401
0#
#402
1#
b01011111 '
#403
0#
#404
1#
b01100000 '
#405
0#
#406
1#
b01100001 '
#407
0#
#408
1#
b01100010 '
#409
0#
#410
1#
b01100011 '
#411
0#
#412
1#
b01100100 '
#413
0#
#414
1#
b01100101 '
#415
0#
#416
1#
b01100110 '
#417
0#
#418
1#
b01100111 '
#419
0#
#420
1#
b01101000 '
#421
0#
#422
1#
b01101001 '
#423
0#
#424
1#
b01101010 '
#425
0#
#426
1#
b01101011 '
#427
0#
#428
1#
b01101100 '
#429
0#
#430
1#
b01101101 '
#431
0#
#432
1#
b01101110 '
#433
0#
#434
1#
b01101111 '
#435
0#
#436
1#
b01110000 '
#437
0#
#438
1#
b01110001 '
#439
0#
#440
1#
1%
b01110010 '
#441
0#
#442
1#
0%
b00100111 '
#443
0#
#444
1#
b00101000 '
#445
0#
#446
1#
b00101001 '
#447
0#
#448
1#
b00101010 '
#449
0#
#450
1#
b00101011 '
#451
0#
#452
1#
b00101100 '
#453
0#
#454
1#
b00101101 '
#455
0#
#456
1#
b00101110 '
#457
0#
#458
1#
b00101111 '
#459
0#
#460
1#
b00110000 '
#461
0#
#462
1#
b00110001 '
#463
0#
#464
1#
b00110010 '
#465
0#
#466
1#
b00110011 '
#467
0#
#468
1#
b00110100 '
#469
0#
#470
1#
b00110101 '
#471
0#
#472
1#
b00110110 '
#473
0#
#474
1#
b00110111 '
#475
0#
#476
1#
b00111000 '
#477
0#
#478
1#
b00111001 '
#479
0#
#480
1#
b00111010 '
#481
0#
#482
1#
b00111011 '
#483
0#
#484
1#
b00111100 '
#485
0#
#486
1#
b00111101 '
#487
0#
#488
1#
b00111110 '
#489
0#
#490
1#
b00111111 '
#491
0#
#492
1#
b01000000 '
#493
0#
#494
1#
b01000001 '
#495
0#
#496
1#
b01000010 '
#497
0#
#498
1#
b01000011 '
#499
0#
#500
1#
b01000100 '
#501
0#
#502
1#
b01000101 '
#503
0#
#504
1#
b01000110 '
#505
0#
#506
1#
b01000111 '
#507
0#
#508
1#
b01001000 '
#509
0#
#510
1#
b01001001 '
#511
0#
#512
1#
b01001010 '
#513
0#
#514
1#
b01001011 '
#515
0#
#516
1#
b01001100 '
#517
0#
#518
1#
b01001101 '
#519
0#
#520
1#
b01001110 '
#521
0#
#522
1#
b01001111 '
#523
0#
#524
1#
b01010000 '
#525
0#
#526
1#
b01010001 '
#527
0#
#528
1#
b01010010 '
#529
0#
#530
1#
b01010011 '
#531
0#
#532
1#
b01010100 '
#533
0#
#534
1#
b01010101 '
#535
0#
#536
1#
b01010110 '
#537
0#
#538
1#
b01010111 '
#539
0#
#540
1#
b01011000 '
#541
0#
#542
1#
b01011001 '
#543
0#
#544
1#
b01011010 '
#545
0#
#546
1#
b01011011 '
#547
0#
#548
1#
b01011100 '
#549
0#
#550
1#
b01011101 '
#551
0#
#552
1#
b01011110 '
#553
0#
#554
1#
b01011111 '
#555
0#
#556
1#
b01100000 '
#557
0#
#558
1#
b01100001 '
#559
0#
#560
1#
b01100010 '
#561
0#
#562
1#
b01100011 '
#563
0#
#564
1#
b01100100 '
#565
0#
#566
1#
b01100101 '
#567
0#
#568
1#
b01100110 '
#569
0#
#570
1#
b01100111 '
#571
0#
#572
1#
b01101000 '
#573
0#
#574
1#
b01101001 '
#575
0#
#576
1#
b01101010 '
#577
0#
#578
1#
b01101011 '
#579
0#
#580
1#
b01101100 '
#581
0#
#582
1#
b01101101 '
#583
0#
#584
1#
b01101110 '
#585
0#
#586
1#
b01101111 '
#587
0#
#588
1#
b01110000 '
#589
0#
#590
1#
b01110001 '
#591
0#
#592
1#
b01110010 '
#593
0#
#594
1#
b01110011 '
#595
0#
#596
1#
b01110100 '
#597
0#
#598
1#
b01110101 '
